{
  "repo": {
    "timestamp": 1594166391074,
    "version": 18,
    "name": "Repositorium",
    "icon": "default-repo-icon.png",
    "address": "https://raw.githubusercontent.com/carastro/F-Droid-Repositorium/master/fdroid/repo",
    "description": "Apps",
    "mirrors": [
      "https://raw.githubusercontent.com/carastro/F-Droid-Repositorium/master/fdroid/repo/repo"
    ]
  },
  "requests": {
    "install": [],
    "uninstall": []
  },
  "apps": [
    {
      "suggestedVersionCode": "1911090",
      "license": "Unknown",
      "name": "com.mixplorer.addon.archive",
      "added": 1594165685418,
      "icon": "com.mixplorer.addon.archive.1911090.png",
      "packageName": "com.mixplorer.addon.archive",
      "lastUpdated": 1594165695462
    },
    {
      "suggestedVersionCode": "1801161",
      "license": "Unknown",
      "name": "com.mixplorer.addon.autotag",
      "added": 1594165691523,
      "icon": "com.mixplorer.addon.autotag.1801161.png",
      "packageName": "com.mixplorer.addon.autotag",
      "lastUpdated": 1594165703791
    },
    {
      "suggestedVersionCode": "2005221",
      "license": "Unknown",
      "name": "com.mixplorer.addon.codecs",
      "added": 1594165690507,
      "icon": "com.mixplorer.addon.codecs.2005221.png",
      "packageName": "com.mixplorer.addon.codecs",
      "lastUpdated": 1594165702509
    },
    {
      "suggestedVersionCode": "2006270",
      "license": "Unknown",
      "name": "com.mixplorer.addon.image",
      "added": 1594165687353,
      "icon": "com.mixplorer.addon.image.2006270.png",
      "packageName": "com.mixplorer.addon.image",
      "lastUpdated": 1594165698236
    },
    {
      "suggestedVersionCode": "1911150",
      "license": "Unknown",
      "name": "com.mixplorer.addon.metadata",
      "added": 1594165688281,
      "icon": "com.mixplorer.addon.metadata.1911150.png",
      "packageName": "com.mixplorer.addon.metadata",
      "lastUpdated": 1594165699550
    },
    {
      "suggestedVersionCode": "1911150",
      "license": "Unknown",
      "name": "com.mixplorer.addon.pdf",
      "added": 1594165684443,
      "icon": "com.mixplorer.addon.pdf.1911150.png",
      "packageName": "com.mixplorer.addon.pdf",
      "lastUpdated": 1594165694094
    },
    {
      "suggestedVersionCode": "2003081",
      "license": "Unknown",
      "name": "com.mixplorer.addon.smb",
      "added": 1594165686313,
      "icon": "com.mixplorer.addon.smb.2003081.png",
      "packageName": "com.mixplorer.addon.smb",
      "lastUpdated": 1594165696767
    },
    {
      "suggestedVersionCode": "20062830",
      "license": "Unknown",
      "name": "MiXplorer",
      "added": 1594165689361,
      "icon": "com.mixplorer.20062830.png",
      "packageName": "com.mixplorer",
      "lastUpdated": 1594165701031
    }
  ],
  "packages": {
    "com.mixplorer.addon.pdf": [
      {
        "added": 1594165694094,
        "apkName": "1f73be3e-3497-4751-a47b-b179c1407deb.apk",
        "hash": "4040e9ce774841866854d2249ba04977c543cbd862ca19b6240d330a3c6607ff",
        "hashType": "sha256",
        "minSdkVersion": "9",
        "nativecode": [
          "arm64-v8a",
          "armeabi",
          "x86",
          "x86_64"
        ],
        "packageName": "com.mixplorer.addon.pdf",
        "sig": "d79905e796392f0a459609f6e69ac8b1",
        "size": 10591026,
        "targetSdkVersion": "29",
        "versionCode": 1911150,
        "versionName": "1.8"
      }
    ],
    "com.mixplorer.addon.archive": [
      {
        "added": 1594165695462,
        "apkName": "7b930589-751f-4e54-81a8-e3bb1f3a31ff.apk",
        "hash": "ec4fb44365bb804a32179661bda08f4cced479105198c26395b52dc465943ea2",
        "hashType": "sha256",
        "minSdkVersion": "5",
        "nativecode": [
          "arm64-v8a",
          "armeabi",
          "x86",
          "x86_64"
        ],
        "packageName": "com.mixplorer.addon.archive",
        "sig": "d79905e796392f0a459609f6e69ac8b1",
        "size": 7988363,
        "targetSdkVersion": "29",
        "versionCode": 1911090,
        "versionName": "3.5"
      }
    ],
    "com.mixplorer.addon.smb": [
      {
        "added": 1594165696767,
        "apkName": "855fdc35-f72a-4413-99a0-9fb55c3c1d5a.apk",
        "hash": "86baa559dd29e0b1e51525d0c02f60eef315ab5b688059971ad1ed68aacc6c73",
        "hashType": "sha256",
        "minSdkVersion": "5",
        "packageName": "com.mixplorer.addon.smb",
        "sig": "d79905e796392f0a459609f6e69ac8b1",
        "size": 752850,
        "targetSdkVersion": "29",
        "uses-permission": [
          [
            "com.android.vending.BILLING",
            null
          ]
        ],
        "versionCode": 2003081,
        "versionName": "1.18"
      }
    ],
    "com.mixplorer.addon.image": [
      {
        "added": 1594165698236,
        "apkName": "9731f919-fc90-469b-a9fa-bf82012400c5.apk",
        "hash": "76a7049d7fff2cdb5b5612758d219e68c352ecc0e4ea0bb7b0613f12ed3d0411",
        "hashType": "sha256",
        "minSdkVersion": "9",
        "nativecode": [
          "arm64-v8a",
          "armeabi",
          "x86",
          "x86_64"
        ],
        "packageName": "com.mixplorer.addon.image",
        "sig": "d79905e796392f0a459609f6e69ac8b1",
        "size": 5494960,
        "targetSdkVersion": "30",
        "versionCode": 2006270,
        "versionName": "2.6"
      }
    ],
    "com.mixplorer.addon.metadata": [
      {
        "added": 1594165699550,
        "apkName": "b1aa32d4-c945-479b-a9e4-4058d9b8a227.apk",
        "hash": "8dc9303912c51149464ae22a7a094ee20cd491e75ec6bc44773651a52d2779e5",
        "hashType": "sha256",
        "minSdkVersion": "5",
        "packageName": "com.mixplorer.addon.metadata",
        "sig": "d79905e796392f0a459609f6e69ac8b1",
        "size": 578454,
        "targetSdkVersion": "29",
        "versionCode": 1911150,
        "versionName": "1.10"
      }
    ],
    "com.mixplorer": [
      {
        "added": 1594165701031,
        "apkName": "b2a8f70f-5333-4efa-9017-e64008b5cb95.apk",
        "hash": "612deea9b697eff74678a13541f736879b050db39acb0e8f9a81992368a885af",
        "hashType": "sha256",
        "minSdkVersion": "8",
        "nativecode": [
          "arm64-v8a",
          "armeabi",
          "x86",
          "x86_64"
        ],
        "packageName": "com.mixplorer",
        "sig": "d79905e796392f0a459609f6e69ac8b1",
        "size": 3426504,
        "targetSdkVersion": "30",
        "uses-permission": [
          [
            "android.permission.REQUEST_INSTALL_PACKAGES",
            null
          ],
          [
            "android.permission.REQUEST_DELETE_PACKAGES",
            null
          ],
          [
            "android.permission.MANAGE_EXTERNAL_STORAGE",
            null
          ],
          [
            "android.permission.WRITE_EXTERNAL_STORAGE",
            null
          ],
          [
            "android.permission.READ_EXTERNAL_STORAGE",
            null
          ],
          [
            "android.permission.FOREGROUND_SERVICE",
            null
          ],
          [
            "android.permission.ACCESS_ALL_DOWNLOADS",
            null
          ],
          [
            "com.google.android.permission.PROVIDE_BACKGROUND",
            null
          ],
          [
            "android.permission.MODIFY_AUDIO_SETTINGS",
            null
          ],
          [
            "android.permission.WAKE_LOCK",
            null
          ],
          [
            "android.permission.VIBRATE",
            null
          ],
          [
            "android.permission.BLUETOOTH",
            null
          ],
          [
            "android.permission.BLUETOOTH_ADMIN",
            null
          ],
          [
            "android.permission.ACCESS_BLUETOOTH_SHARE",
            null
          ],
          [
            "android.permission.USE_BIOMETRIC",
            null
          ],
          [
            "android.permission.USE_FINGERPRINT",
            null
          ],
          [
            "com.samsung.android.providers.context.permission.WRITE_USE_APP_FEATURE_SURVEY",
            null
          ],
          [
            "android.permission.ACCESS_SUPERUSER",
            null
          ],
          [
            "android.permission.SET_WALLPAPER",
            null
          ],
          [
            "com.android.launcher.permission.INSTALL_SHORTCUT",
            null
          ],
          [
            "android.permission.INTERNET",
            null
          ],
          [
            "android.permission.ACCESS_NETWORK_STATE",
            null
          ],
          [
            "android.permission.ACCESS_WIFI_STATE",
            null
          ],
          [
            "android.permission.CHANGE_WIFI_STATE",
            null
          ],
          [
            "android.permission.WRITE_SETTINGS",
            null
          ],
          [
            "android.permission.MANAGE_DOCUMENTS",
            null
          ],
          [
            "android.permission.WRITE_MEDIA_STORAGE",
            null
          ],
          [
            "android.permission.ACCESS_MEDIA_LOCATION",
            null
          ],
          [
            "android.permission.RECEIVE_BOOT_COMPLETED",
            null
          ]
        ],
        "versionCode": 20062830,
        "versionName": "6.47.2"
      }
    ],
    "com.mixplorer.addon.codecs": [
      {
        "added": 1594165702509,
        "apkName": "com.mixplorer.addon.codecs.2005221.apk",
        "hash": "75c521d891b58d2f05bc3607ea7c44ee3b5061c06e4d0d74847b724ac8913509",
        "hashType": "sha256",
        "minSdkVersion": "16",
        "nativecode": [
          "armeabi"
        ],
        "packageName": "com.mixplorer.addon.codecs",
        "sig": "d79905e796392f0a459609f6e69ac8b1",
        "size": 11834168,
        "targetSdkVersion": "29",
        "versionCode": 2005221,
        "versionName": "2.2"
      }
    ],
    "com.mixplorer.addon.autotag": [
      {
        "added": 1594165703791,
        "apkName": "fe467aea-42ff-4989-a92a-286db666bf5d.apk",
        "hash": "c27f8d4a0213e641495ac895f6b0e25022117522be394d62595c354d295bedb4",
        "hashType": "sha256",
        "minSdkVersion": "16",
        "nativecode": [
          "arm64-v8a",
          "armeabi",
          "armeabi-v7a",
          "mips",
          "x86",
          "x86_64"
        ],
        "packageName": "com.mixplorer.addon.autotag",
        "sig": "d79905e796392f0a459609f6e69ac8b1",
        "size": 718234,
        "targetSdkVersion": "27",
        "versionCode": 1801161,
        "versionName": "1.0"
      }
    ]
  }
}